{
    "envs": {
        "prod": "www.open.edu.au",
        "pre08": "www-pre08.pre.open.edu.au",
        "dev8": "www-dev8.opentest.edu.au",
        "uat8": "www-uat8.opentest.edu.au",
        "tst9": "www-tst9.opentest.edu.au"
    },
    "clear-cache-urls": [ "/admin/cache-control/reload-config",
        "/admin/cache-control/clear-unit-cache",
        "/admin/cache-control/clear-course-cache",
        "/admin/cache-control/populate-stubs",
        "/admin/cache-control/clear-post-sync-caches",
        "/admin/cache-control/clear-page-cache",
        "/admin/cache-control/reload-config",
        "/admin/cache-control/clear-all-caches"
    ],
    "links": {
        "HE build pipeline": "https://jenkins.tools.opentest.edu.au/view/build%20website%20artifact/",
        "HE deployment pipeline": "https://jenkins.tools.opentest.edu.au/view/deploy%20website/",
        "OUA single sign on": "https://oua.okta.com/",
        "Test Credit Cards (BPoint)": "https://cheetah.atlassian.net/wiki/display/PGP/BPoint+How-To",
        "OUA Chef Server": "https://chef.tools.opentest.edu.au/organizations/oua/environments",
        "HE Web Deploy Test": "https://jenkins.tools.opentest.edu.au/job/HE%20Web%20Ops/job/Deploy%20HE%20Test/build?delay=0sec",
        "HE Web Crawl": "https://jenkins.tools.opentest.edu.au/job/HE%20Web%20Ops/job/Run%20HE%20Web%20Crawl/build?delay=0sec",
        "Grant SSH access": "https://jenkins.tools.opentest.edu.au/job/HE%20Web%20Ops/job/Refresh%20Users/build?delay=0sec",
        "Restart tomcat": "https://jenkins.tools.opentest.edu.au/job/HE%20Web%20Ops/job/Restart%20tomcat/build?delay=0sec",
        "HE Web Prod Support": "https://cheetah.atlassian.net/issues/?filter=27402"
    },
    "maxPollIpRequests": 20
}
